<?xml version="1.0" encoding="UTF-8" standalone="no"?>
<svg
   height="30"
   width="30"
   version="1.1"
   id="svg16039"
   sodipodi:docname="windows-icon.svg"
   inkscape:version="1.2.1 (9c6d41e410, 2022-07-14)"
   xmlns:inkscape="http://www.inkscape.org/namespaces/inkscape"
   xmlns:sodipodi="http://sodipodi.sourceforge.net/DTD/sodipodi-0.dtd"
   xmlns="http://www.w3.org/2000/svg"
   xmlns:svg="http://www.w3.org/2000/svg">
  <defs
     id="defs16043" />
  <sodipodi:namedview
     id="namedview16041"
     pagecolor="#ffffff"
     bordercolor="#000000"
     borderopacity="0.25"
     inkscape:showpageshadow="2"
     inkscape:pageopacity="0.0"
     inkscape:pagecheckerboard="0"
     inkscape:deskcolor="#d1d1d1"
     showgrid="false"
     inkscape:zoom="23.340909"
     inkscape:cx="32.86076"
     inkscape:cy="29.647517"
     inkscape:window-width="3840"
     inkscape:window-height="2087"
     inkscape:window-x="0"
     inkscape:window-y="0"
     inkscape:window-maximized="1"
     inkscape:current-layer="svg16039" />
  <path
     d="M 0,4.2475026 12.222273,2.5830241 12.22775,14.372396 0.01129904,14.441925 Z M 12.216451,15.730693 12.226035,27.530337 0.00959103,25.850791 0.00890597,15.651578 Z M 13.698042,2.3652036 29.903762,0 v 14.222387 l -16.20572,0.128782 z M 29.90753,15.841658 29.903753,30 13.698042,27.712882 13.675443,15.815286 Z"
     fill="#00adef"
     id="path16037"
     style="fill:currentColor;fill-opacity:1;stroke-width:0.342485" />
</svg>
